G04*
G04 #@! TF.GenerationSoftware,Altium Limited,Altium Designer,21.0.8 (223)*
G04*
G04 Layer_Physical_Order=4*
G04 Layer_Color=16711680*
%FSAX24Y24*%
%MOIN*%
G70*
G04*
G04 #@! TF.SameCoordinates,B283DA65-D161-4AC3-98B3-B7E6F92BDFF8*
G04*
G04*
G04 #@! TF.FilePolarity,Positive*
G04*
G01*
G75*
%ADD16C,0.0080*%
%ADD45C,0.0709*%
%ADD46C,0.0650*%
%ADD47R,0.0650X0.0650*%
%ADD48C,0.0138*%
G36*
X009306Y014424D02*
Y013840D01*
X009260Y013821D01*
X008215Y014865D01*
X008162Y014901D01*
X008100Y014913D01*
X007500D01*
X007438Y014901D01*
X007385Y014865D01*
X007200Y014681D01*
X007015Y014865D01*
X006962Y014901D01*
X006900Y014913D01*
X006300D01*
X006238Y014901D01*
X006185Y014865D01*
X005035Y013715D01*
X004999Y013662D01*
X004987Y013600D01*
X004987Y011218D01*
X004463Y010694D01*
X004455Y010695D01*
X004379Y010746D01*
X004290Y010763D01*
X004201Y010746D01*
X004125Y010695D01*
X004074Y010619D01*
X004057Y010530D01*
X004043Y010513D01*
X003750D01*
X003688Y010501D01*
X003635Y010465D01*
X003485Y010315D01*
X003449Y010262D01*
X003437Y010200D01*
Y009750D01*
X003449Y009688D01*
X003485Y009635D01*
X003910Y009209D01*
X003891Y009163D01*
X002868D01*
X002728Y009303D01*
X002734Y009367D01*
X002775Y009395D01*
X002789Y009416D01*
X002851Y009374D01*
X002940Y009357D01*
X003029Y009374D01*
X003055Y009392D01*
X003081Y009374D01*
X003170Y009357D01*
X003259Y009374D01*
X003335Y009425D01*
X003386Y009501D01*
X003403Y009590D01*
X003386Y009679D01*
X003335Y009755D01*
X003259Y009806D01*
X003170Y009823D01*
X003081Y009806D01*
X003055Y009788D01*
X003029Y009806D01*
X002940Y009823D01*
X002851Y009806D01*
X002775Y009755D01*
X002761Y009734D01*
X002699Y009776D01*
X002610Y009793D01*
X002563Y009784D01*
X002513Y009825D01*
Y010150D01*
X002501Y010212D01*
X002465Y010265D01*
X002331Y010400D01*
X002350Y010446D01*
X003460D01*
X003538Y010462D01*
X003604Y010506D01*
X003799Y010700D01*
X003819Y010704D01*
X003895Y010755D01*
X003946Y010831D01*
X003963Y010920D01*
X003946Y011009D01*
X003895Y011085D01*
X003842Y011121D01*
X003853Y011180D01*
X003836Y011269D01*
X003785Y011345D01*
X003709Y011396D01*
X003677Y011402D01*
X003666Y011459D01*
X003615Y011535D01*
X003539Y011586D01*
X003476Y011598D01*
X003476Y011599D01*
X003425Y011675D01*
X003349Y011726D01*
X003260Y011743D01*
X003171Y011726D01*
X003130Y011698D01*
X003059Y011746D01*
X002970Y011763D01*
X002881Y011746D01*
X002810Y011698D01*
X002769Y011726D01*
X002680Y011743D01*
X002591Y011726D01*
X002515Y011675D01*
X002464Y011599D01*
X002464Y011598D01*
X002401Y011586D01*
X002325Y011535D01*
X002274Y011459D01*
X002257Y011370D01*
X002274Y011281D01*
X002325Y011205D01*
X002401Y011154D01*
X002490Y011137D01*
X002579Y011154D01*
X002655Y011205D01*
X002706Y011281D01*
X002706Y011282D01*
X002769Y011294D01*
X002840Y011342D01*
X002881Y011314D01*
X002970Y011297D01*
X003059Y011314D01*
X003100Y011342D01*
X003171Y011294D01*
X003234Y011282D01*
X003234Y011281D01*
X003285Y011205D01*
X003361Y011154D01*
X003393Y011148D01*
X003404Y011091D01*
X003455Y011015D01*
X003471Y011004D01*
X003476Y010954D01*
X003376Y010854D01*
X002430D01*
X002399Y010893D01*
X002404Y010920D01*
X002386Y011009D01*
X002336Y011085D01*
X002260Y011136D01*
X002171Y011153D01*
X002081Y011136D01*
X002006Y011085D01*
X001955Y011009D01*
X001937Y010920D01*
X001943Y010893D01*
X001911Y010854D01*
X000521D01*
X000443Y010838D01*
X000377Y010794D01*
X000211Y010629D01*
X000191Y010625D01*
X000115Y010574D01*
X000064Y010498D01*
X000047Y010409D01*
X000064Y010320D01*
X000115Y010244D01*
X000191Y010193D01*
X000280Y010176D01*
X000369Y010193D01*
X000445Y010244D01*
X000496Y010320D01*
X000500Y010340D01*
X000605Y010446D01*
X001250D01*
X001269Y010400D01*
X001185Y010315D01*
X001149Y010262D01*
X001137Y010200D01*
X001137Y008500D01*
X001149Y008438D01*
X001185Y008385D01*
X001185Y008385D01*
X001835Y007735D01*
X001888Y007699D01*
X001950Y007687D01*
X006950Y007687D01*
X007012Y007699D01*
X007065Y007735D01*
X009260Y009929D01*
X009306Y009910D01*
Y007500D01*
X008500D01*
X008500Y000550D01*
X008500Y000500D01*
X008500Y000500D01*
X008550Y000500D01*
X008809D01*
X008819Y000450D01*
X008755Y000424D01*
X008654Y000346D01*
X008576Y000245D01*
X008527Y000127D01*
X008521Y000080D01*
X009000D01*
Y-000000D01*
X009080D01*
Y-000479D01*
X009127Y-000473D01*
X009223Y-000433D01*
X009251Y-000475D01*
X008420Y-001306D01*
X-000306D01*
Y-000433D01*
X-000261Y-000411D01*
X-000245Y-000424D01*
X-000127Y-000473D01*
X-000080Y-000479D01*
Y000000D01*
X000000D01*
Y000080D01*
X000479D01*
X000473Y000127D01*
X000424Y000245D01*
X000346Y000346D01*
X000245Y000424D01*
X000181Y000450D01*
X000191Y000500D01*
X000500D01*
Y007500D01*
X-000306D01*
Y014374D01*
X000526Y015206D01*
X008524D01*
X009306Y014424D01*
D02*
G37*
G36*
X007100Y014550D02*
Y011320D01*
X005030Y009250D01*
X004100D01*
X003600Y009750D01*
Y010200D01*
X003750Y010350D01*
X004350D01*
X005150Y011150D01*
X005150Y013600D01*
X006300Y014750D01*
X006900D01*
X007100Y014550D01*
D02*
G37*
G36*
X007137Y011061D02*
Y010817D01*
X005492Y009163D01*
X005239D01*
X005220Y009209D01*
X007091Y011080D01*
X007137Y011061D01*
D02*
G37*
G36*
X009250Y013600D02*
X009250Y010150D01*
X006950Y007850D01*
X001950Y007850D01*
X001300Y008500D01*
X001300Y010200D01*
X001500Y010400D01*
X002100D01*
X002350Y010150D01*
Y009450D01*
X002800Y009000D01*
X005560D01*
X007300Y010750D01*
Y014550D01*
X007500Y014750D01*
X008100D01*
X009250Y013600D01*
D02*
G37*
%LPC*%
G36*
X002300Y014619D02*
X002166Y014601D01*
X002041Y014549D01*
X001933Y014467D01*
X001851Y014359D01*
X001825Y014297D01*
X001775D01*
X001749Y014359D01*
X001667Y014467D01*
X001559Y014549D01*
X001434Y014601D01*
X001380Y014608D01*
Y014100D01*
Y013592D01*
X001434Y013599D01*
X001559Y013651D01*
X001667Y013733D01*
X001749Y013841D01*
X001775Y013903D01*
X001825D01*
X001851Y013841D01*
X001933Y013733D01*
X002041Y013651D01*
X002166Y013599D01*
X002300Y013581D01*
X002434Y013599D01*
X002559Y013651D01*
X002667Y013733D01*
X002749Y013841D01*
X002801Y013966D01*
X002819Y014100D01*
X002801Y014234D01*
X002749Y014359D01*
X002667Y014467D01*
X002559Y014549D01*
X002434Y014601D01*
X002300Y014619D01*
D02*
G37*
G36*
X001220Y014608D02*
X001166Y014601D01*
X001041Y014549D01*
X000933Y014467D01*
X000851Y014359D01*
X000799Y014234D01*
X000792Y014180D01*
X001220D01*
Y014608D01*
D02*
G37*
G36*
Y014020D02*
X000792D01*
X000799Y013966D01*
X000851Y013841D01*
X000933Y013733D01*
X001041Y013651D01*
X001166Y013599D01*
X001220Y013592D01*
Y014020D01*
D02*
G37*
G36*
X001700Y011553D02*
X001611Y011536D01*
X001535Y011485D01*
X001484Y011409D01*
X001467Y011320D01*
X001484Y011231D01*
X001535Y011155D01*
X001611Y011104D01*
X001700Y011087D01*
X001789Y011104D01*
X001865Y011155D01*
X001916Y011231D01*
X001933Y011320D01*
X001916Y011409D01*
X001865Y011485D01*
X001789Y011536D01*
X001700Y011553D01*
D02*
G37*
G36*
X004290Y011803D02*
X004201Y011786D01*
X004125Y011735D01*
X004074Y011659D01*
X004057Y011570D01*
X004074Y011481D01*
X004125Y011405D01*
X004170Y011375D01*
Y011315D01*
X004125Y011285D01*
X004074Y011209D01*
X004057Y011120D01*
X004074Y011031D01*
X004125Y010955D01*
X004201Y010904D01*
X004290Y010887D01*
X004379Y010904D01*
X004455Y010955D01*
X004506Y011031D01*
X004523Y011120D01*
X004506Y011209D01*
X004455Y011285D01*
X004410Y011315D01*
Y011375D01*
X004455Y011405D01*
X004506Y011481D01*
X004523Y011570D01*
X004506Y011659D01*
X004455Y011735D01*
X004379Y011786D01*
X004290Y011803D01*
D02*
G37*
G36*
X001780Y006453D02*
X001691Y006436D01*
X001615Y006385D01*
X001564Y006309D01*
X001547Y006220D01*
X001564Y006131D01*
X001615Y006055D01*
X001691Y006004D01*
X001780Y005987D01*
X001869Y006004D01*
X001945Y006055D01*
X001996Y006131D01*
X002013Y006220D01*
X001996Y006309D01*
X001945Y006385D01*
X001869Y006436D01*
X001780Y006453D01*
D02*
G37*
G36*
X008920Y-000080D02*
X008521D01*
X008527Y-000127D01*
X008576Y-000245D01*
X008654Y-000346D01*
X008755Y-000424D01*
X008873Y-000473D01*
X008920Y-000479D01*
Y-000080D01*
D02*
G37*
G36*
X000479Y-000080D02*
X000080D01*
Y-000479D01*
X000127Y-000473D01*
X000245Y-000424D01*
X000346Y-000346D01*
X000424Y-000245D01*
X000473Y-000127D01*
X000479Y-000080D01*
D02*
G37*
%LPD*%
D16*
X000280Y010409D02*
X000521Y010650D01*
X003460D01*
X003730Y010920D01*
D45*
X001300Y014100D02*
D03*
X002300D02*
D03*
X006700D02*
D03*
X007700D02*
D03*
D46*
X009000Y001000D02*
D03*
Y006000D02*
D03*
Y005000D02*
D03*
Y007000D02*
D03*
Y003000D02*
D03*
Y002000D02*
D03*
Y004000D02*
D03*
Y000000D02*
D03*
X-000000Y005000D02*
D03*
Y000000D02*
D03*
Y004000D02*
D03*
Y002000D02*
D03*
Y001000D02*
D03*
Y003000D02*
D03*
Y006000D02*
D03*
D47*
Y007000D02*
D03*
D48*
X000000Y011811D02*
D03*
X000197D02*
D03*
Y011614D02*
D03*
X000000D02*
D03*
Y012008D02*
D03*
X000197D02*
D03*
X-000197Y013386D02*
D03*
X000000D02*
D03*
Y013583D02*
D03*
Y013780D02*
D03*
X-000197D02*
D03*
Y013583D02*
D03*
Y013976D02*
D03*
X000000D02*
D03*
Y014173D02*
D03*
X-000197D02*
D03*
X000000Y012992D02*
D03*
X000197D02*
D03*
Y013189D02*
D03*
X000000D02*
D03*
X000394D02*
D03*
Y012992D02*
D03*
X000591D02*
D03*
Y013189D02*
D03*
X000000Y014567D02*
D03*
X000197D02*
D03*
X000394D02*
D03*
Y014370D02*
D03*
X000197D02*
D03*
X000000D02*
D03*
X000591Y014567D02*
D03*
Y014370D02*
D03*
X006299Y-000197D02*
D03*
X006496D02*
D03*
X006693D02*
D03*
X006890D02*
D03*
Y-000394D02*
D03*
X006693D02*
D03*
X006496D02*
D03*
X006299D02*
D03*
X002165Y-000197D02*
D03*
X002362D02*
D03*
X002559D02*
D03*
X002756D02*
D03*
Y-000394D02*
D03*
X002559D02*
D03*
X002362D02*
D03*
X002165D02*
D03*
X008465Y008661D02*
D03*
X008661D02*
D03*
X008858D02*
D03*
X009055D02*
D03*
Y008465D02*
D03*
X008858D02*
D03*
X008661D02*
D03*
X008465D02*
D03*
Y008071D02*
D03*
X008661D02*
D03*
X008858D02*
D03*
X009055D02*
D03*
Y008268D02*
D03*
X008858D02*
D03*
X008661D02*
D03*
X008465D02*
D03*
X000000Y012795D02*
D03*
X000197D02*
D03*
Y012598D02*
D03*
X000000D02*
D03*
Y012205D02*
D03*
X000197D02*
D03*
Y012402D02*
D03*
X000000D02*
D03*
X007480Y013386D02*
D03*
X007677D02*
D03*
X007874D02*
D03*
X008071D02*
D03*
Y013189D02*
D03*
X007874D02*
D03*
X007677D02*
D03*
X007480D02*
D03*
Y012795D02*
D03*
X007677D02*
D03*
X007874D02*
D03*
X008071D02*
D03*
Y012992D02*
D03*
X007874D02*
D03*
X007677D02*
D03*
X007480D02*
D03*
X006299Y013386D02*
D03*
X006496D02*
D03*
X006693D02*
D03*
X006890D02*
D03*
Y013189D02*
D03*
X006693D02*
D03*
X006496D02*
D03*
X006299D02*
D03*
Y012795D02*
D03*
X006496D02*
D03*
X006693D02*
D03*
X006890D02*
D03*
Y012992D02*
D03*
X006693D02*
D03*
X006496D02*
D03*
X006299D02*
D03*
X004921Y014961D02*
D03*
X005118D02*
D03*
X005315D02*
D03*
X005512D02*
D03*
Y014764D02*
D03*
X005315D02*
D03*
X005118D02*
D03*
X004921D02*
D03*
Y014370D02*
D03*
X005118D02*
D03*
X005315D02*
D03*
X005512D02*
D03*
Y014567D02*
D03*
X005315D02*
D03*
X005118D02*
D03*
X004921D02*
D03*
X003543Y014961D02*
D03*
X003740D02*
D03*
X003937D02*
D03*
X004134D02*
D03*
Y014764D02*
D03*
X003937D02*
D03*
X003740D02*
D03*
X003543D02*
D03*
Y014370D02*
D03*
X003740D02*
D03*
X003937D02*
D03*
X004134D02*
D03*
Y014567D02*
D03*
X003937D02*
D03*
X003740D02*
D03*
X003543D02*
D03*
X004724Y007283D02*
D03*
X004921D02*
D03*
X005118D02*
D03*
X005315D02*
D03*
Y007087D02*
D03*
X005118D02*
D03*
X004921D02*
D03*
X004724D02*
D03*
Y006693D02*
D03*
X004921D02*
D03*
X005118D02*
D03*
X005315D02*
D03*
Y006890D02*
D03*
X005118D02*
D03*
X004921D02*
D03*
X004724D02*
D03*
X004331Y007283D02*
D03*
Y007087D02*
D03*
Y006890D02*
D03*
Y006693D02*
D03*
X004134D02*
D03*
Y006890D02*
D03*
Y007087D02*
D03*
Y007283D02*
D03*
X003740D02*
D03*
Y007087D02*
D03*
Y006890D02*
D03*
Y006693D02*
D03*
X003937D02*
D03*
Y006890D02*
D03*
Y007087D02*
D03*
Y007283D02*
D03*
X006693Y003543D02*
D03*
Y003346D02*
D03*
Y003150D02*
D03*
Y002953D02*
D03*
X006496D02*
D03*
Y003150D02*
D03*
Y003346D02*
D03*
Y003543D02*
D03*
X006102D02*
D03*
Y003346D02*
D03*
Y003150D02*
D03*
Y002953D02*
D03*
X006299D02*
D03*
Y003150D02*
D03*
Y003346D02*
D03*
Y003543D02*
D03*
X002362Y003150D02*
D03*
X002559D02*
D03*
X002756D02*
D03*
X002953D02*
D03*
Y002953D02*
D03*
X002756D02*
D03*
X002559D02*
D03*
X002362D02*
D03*
Y003346D02*
D03*
X002559D02*
D03*
X002756D02*
D03*
X002953D02*
D03*
Y003543D02*
D03*
X002756D02*
D03*
X002559D02*
D03*
X002362D02*
D03*
X000280Y010409D02*
D03*
X002490Y011370D02*
D03*
X002970Y011530D02*
D03*
X002320Y011180D02*
D03*
X002610Y009560D02*
D03*
X001780Y006220D02*
D03*
X004332Y010190D02*
D03*
X004102D02*
D03*
Y010020D02*
D03*
X004332D02*
D03*
X004102Y009850D02*
D03*
X004332D02*
D03*
X003872Y010020D02*
D03*
Y010190D02*
D03*
X002070D02*
D03*
Y010020D02*
D03*
X001610Y009850D02*
D03*
X001840D02*
D03*
X001610Y010020D02*
D03*
X001840D02*
D03*
Y010190D02*
D03*
X001610D02*
D03*
X004290Y010530D02*
D03*
Y011570D02*
D03*
Y011120D02*
D03*
X001700Y011320D02*
D03*
X002171Y010920D02*
D03*
X003170Y009590D02*
D03*
X002940D02*
D03*
X002680Y011510D02*
D03*
X003260D02*
D03*
X003450Y011370D02*
D03*
X003620Y011180D02*
D03*
X003730Y010920D02*
D03*
M02*
